name;artist;start;stop
A Call For All Demons;Sun Ra;1;1
A Child Is Born;That Jones;2;2
A Fine Romance;Kern / Fields;3;3
A Family Joy;Michael Gibbs;4;5
A Foggy Day;Gershwin;6;6
A Night In Tunisia;Dizzy Gillespie;7;7
African Flower;Duke Ellington;8;8
Afro Blue;M. Santamaria;9;9
Afternoon In Paris;John Lewis;10;10
Airegin;Sonny Rollins;11;11
Alice In Wonderland;Sammy Fain / Bob Hilliard;12;12
All Blues;Miles Davis;13;13
All In Love Is Fair;Steview Wonder;14;14
All My Tomorrows;Cahn / Van Heusen;15;15
All Of Me;Simons / Marks;16;16
All Of You;Cole Porter;17;17
All The Things You Are;Hammerstein / Kern;18;18
Alone Together;Dietz / Schwartz;19;19
Ana Maria;Wayne Shorter;20;21
And Now, The Queen;Carla Bley;21;21
Around Again;Carla Bley;21;21
And On The Third Day;Michael Gibbs;23;23
Angel Eyes;Dennis / Brent;24;24
Anthropology;Charlie Parker;25;25
April In Paris;Vernon Duke;26;26
April Joy;Pat Metheny;27;27
Arise, Her Eyes;Steve Swallow;28;29
Armageddon;Wayne Shorter;30;30
As Time Goes By;Herman Hupfeld;31;31
Au Privave;Charlie Parker;32;32
Autumn In New York;VernonDuke;33;33
I Ay, Arriba!;Stu Balcomb;34;35
Autumn Leaves;Johnny Mercer;36;36
Ballet;Michael Gibbs;37;37
Batterie;Carla Bley;38;38
Beautiful Love;Victor Young;39;39
Beauty And The Beast;Wayne Shorter;40;40
Beneath It All;Gary Anderson;41;41
Bessie’s Blues;John Coltrane;42;42
Bewitched;Richard Rodgers / Loretz Hart;43;43
Big Nick;John Coltrane;44;44
Bitter Suite In The Ozone;Bob Moses;45;45
Black Diamond;Roland Kirk;46;46
Black Narcissus;Joe Henderson;47;47
Black Nile;Wayne Shorter;48;48
Black Orpheus;Luiz Bonfá;49;49
Blessed Relief;Frank Zappa;50;50
Blue Bossa;Kenny Dorham;51;51
Blue Comedy;Michael Gibbs;52;52
Blue In Green;Miles Davis;53;53
Blue Monk;Thelonious Monk;54;54
Blue Room;Richard Rodgers / Loretz Hart;55;55
Bluesette;Toots Thielemans;56;56
Blues For Alice;Charlie Parker;57;57
Blue Trane;John Coltrane;58;58
Body And Soul;John Green;59;59
Boplicity;Cleo Henry;60;60
Boston Marthon;Gary Burton;61;61
Brainville;Sun Ra;62;63
Bright Size Life;Pat Metheny;64;64
Broadway Blues;Ornette Coleman;65;65
Brownout;Gary Burton;66;66
But Beatuful;Van Heusen / Burke;67;67
Butterfly;Herbie Hancock;68;69
Captain Marvel;Chick Corea;70;71
Canyon Song;Ralph Towner;72;72
Ceora;Lee Morgan;73;73
Chega De Saudade;Antonio Carlos Jobim;74;75
Chelsea Bells;Steve Swallow;76;76
Chelsea Bridge;Billy Strayhorn;77;77
Cherokee;Ray Noble;78;78
Chicken Feathers;Steve Kuhn;79;79
Children’s Song;Chick Corea;80;81
Colors Of Chloë;Eberhard Weber;82;84
Chippie;Ornette Coleman;85;85
Como En Vietnam;Steve Swallow;86;87
Come Sunday;Duke Ellington;88;88
Con Alma;Dizzy Gillespie;89;89
Conception;George Shearing;90;90
Conference Of The Birds;Dave Holland;91;91
Confirmation;Charlie Parker;92;92
Coral;Keith Jarrett;93;93
Moonchild;Keith Jarrett;93;93
Corcovado;Antonio Carlos Jobim;94;94
Cottontail;Duke Ellington;95;95
Could It Be You;Cole Porter;96;96
Countdown;John Coltrane;97;97
Country Roads;Gary Burton / Steve Swallow;98;98
Crescent;John Coltrane;99;99
Crystal Silence;Chick Corea;100;100
Daahoud;Clifford Brown;101;101
Dancing On The Ceiling;Richard Rodgers / Loretz Hart;102;102
Darn That Dream;Van Heusen;103;103
Days And Nights Waiting;Keith Jarrett;104;104
The Days Of Wine And Roses;Henry Mancini;105;105
Day Waves;Chick Corea;106;106
Dearly Beloved;Kern / Mercer;107;107
Dear Old Stockholm;Varmeland;108;108
Delores;Wayne Shorter;109;109
De Pois Do Amor O Vazio;Wayne Shorter;110;111
Desafinado;Antonio Carlos Jobim;112;113
Desert Air;Chick Corea;114;115
Deluge;Wayne Shorter;116;116
Dexterity;Charlie Parker;117;117
Doin’ The Pig;Steve Swallow;118;119
Django;John Lewis;120;120
The Dolphin;ECA;121;121
Dolphin Dance;Herbie Hancock;122;122
Domino Biscuit;Steve Swallow;123;123
Donna Lee;Charlie Parker;124;124
Don’t Blame Me;Fields / McHugh;125;125
Don’t Get Around Much Anymore;Duke Ellington;126;126
The Duke;Dave Brubeck;127;127
12-4 2-4 / Duplicities;Jack Stock;128;128
Easy Living;Robin / Rainger;129;129
Easy To Love;Cole Porter;130;130
Ecclusiastics;Charles Mingus;131;131
Eiderdown;Steve Swallow;132;133
Eighty-One;Miles Davis / Ron Carter;134;134
El Gaucho;Wayne Shorter;135;135
Elizete;Clare Fisher;136;136
Empathy;Richard Niles;137;137
Epistrophy;Thelonious Monk;138;138
Equinox;John Coltrane;139;139
Equipoise;Stanley Cowell;140;140
E.S.P.;Miles Davis;141;141
Exercise #3;Pat Metheny;142;142
Exercise #6;Pat Metheny;143;143
Fables Of Faubus;Charles Mingus;144;145
Fall;Wayne Shorter;146;146
Falling Grace;Steve Swallow;147;147
Falling In Love With Love;Richard Rodgers / Loretz Hart;148;148
Fee-Fi-Fo-Fum;Wayne Shorter;149;149
Feelings And Things;Michael Gibbs;150;150
The Fields We Know;Keith Jarrett;151;151
500 Miles High;Chick Corea;152;152
502 Blues;Wayne Shorter;153;153
Follow Your Heart;John McLaughlin;154;155
Flags;Carla Bley;156;156
Central Park West;John Coltrane;156;156
Footprints;Wayne Shorter;157;157
Forest Flower;Charles Lloyd;158;158
For Heaven’s Sake;Meyer / Bretton / Edward;159;159
Fortune Smiles;Keith Jarrett;160;160
Four;Miles Davis;161;161
Four On Six;Wes Montgomery;162;162
Four Winds;Dave Holland;163;163
Fereddie The Freeloader;Miles Davis;164;164
Freedom Jazz Dance;Eddie Harris;165;165
Gary’s Waltz;Gary McFarland;166;166
Gemini;Jimmy Heath;167;167
General Mojo’s Well Laid Plan;Steve Swallow;168;168
Gentle Rain;Luiz Bonfá;169;169
Giant Steps;John Coltrane;170;170
The Girl From Ipanema;Antonio Carlos Jobim;171;171
Gloria’s Step;Scott LaFaro;172;172
God Bless The Child;Billie Holiday / Arthur Herzog;173;173
Golden Lady;Stevie Wonder;174;174
Godbye Pork Pie Hat;Charles Mingus;175;175
Good Evening Mr. & Mrs. America;John Guerin;176;177
Grand Central;John Coltrane;178;178
Green Dolphin St.;Kaper / Washington;179;179
Green Mountains;Steve Swallow;180;180
Groovin’ High;Dizzy Gillespie;181;181
Grow Your Own;Keith Jarrett;182;183
Half Nelson;Miles Davis;184;184
Hassan’s Dream;Benny Golson;185;185
Have You Met Miss Jones;Richard Rodgers / Loretz Hart;186;186
Heaven;Duke Ellington;187;187
Hello, Young Lovers;Rogers / Hammerstein;188;189
Henniger Flats;David Pritchard;190;190
Here’s That Rainy Day;Jim Van Heusen;191;191
Herzog;Bobby Hutcherson;192;193
Hey There;Adler / Ross;194;194
Hold Out Your Hand;Steve Kuhn;195;195
Hotel Ouverture;Steve Swallow;196;196
Hotel Vamp;Steve Swallow;197;197
Hotel Hello;Steve Swallow;198;200
Sweeping Up;Steve Swallow;200;200
House Of Jade;Wayne Shorter;201;201
How High The Moon;Morgan Lewis;202;202
How Insensitive;Antonio Carlos Jobim;203;203
How My Heart Sings;Earl Zindars;204;204
Hullo, Bolinas;Steve Swallow;205;205
Icarus;Ralph Towner;206;207
I Can’t Get Started;Vernon Duke;208;208
I Could Write A Book;Richard Rodgers / Loretz Hart;209;209
Ida Lupino;Carla Bley;210;210
If You Never Come To Me;Antonio Carlos Jobim;212;212
I Got It Bad;Duke Ellington;213;213
I Let A Song;Duke Ellington;214;214
I Love You;Cole Porter;215;215
I’m All Smiles;Leonard / Martin;216;217
I’ll Remember April;Raye / DePaul / John Stone;218;218
I Mean You;Thelonious Monk;219;219
Impressions;John Coltrane;220;220
I’m Your Pal;Steve Swallow;221;221
In A Mellow Tone;Duke Ellington;222;222
In A Sentimental Mood;Duke Ellington;223;223
Inchworm;Frank Loesser;224;224
Indian Lady;Don Ellis;225;225
Inside In;Michael Gibbs;226;228
Inner Urge;Joe Henderson;229;229
Interplay;Bill Evans;230;230
Interepid Fox;Freddie Hubbard;231;231
In Your Own Sweet Way;Dave Brubeck;232;232
In Your Quiet Place;Keith Jarrett;233;233
Invitation;Kaper / Washington;234;234
I Remember Clifford;Benny Golson;235;235
Iris;Wayne Shorter;236;236
I Should Care;Cahn / Stordahl / Weston;237;237
Isn’t It Romantic?;Richard Rodgers / Loretz Hart;238;238
Isotope;Joe Henderson;239;239
Israel;John Carisi;240;240
It Don’t Mean A Thing;Duke Ellington;241;241
It’s A Raggy Waltz;Dave Brubeck;242;242
Jelly Roll;Charles Mingus;243;243
Jin Rikisha;Joe Her;244;244
Jordu;Duke Ellington;245;245
Journey To Recife;Bill Evans;246;246
Joy Spring;Clifford Brown;247;247
Ju-Ju;Wayne Shorter;248;248
Just Friends;Klemmer / Lewis;249;249
Jump Monk;Charles Mingus;250;251
June 15, 1967;Michael Gibbs;252;253
La Fiesta;Chick Corea;254;255
Lady Bird;Tadd Dameron;256;256
Lament;J.J. Johnson;257;257
Las Vegas Tango;Gil Evans;258;258
Lazybird;John Coltrane;259;259
Leroy, The Magician;Gary Burton;260;260
Lie Awake;Mitch Coodley;261;261
Like Someone In Love;Van Heusen / Burke;262;262
Limehouse Blues;Phillip Braham;263;263
Litha;Chick Corea;264;265
Little B’s Poem;Bobby Hutcherson;266;266
Little Niles;Randy Weston;267;267
Liturgy;Michael Gibbs;268;269
Little Waltz;Ron Carter;270;270
'Long As You Know You’re Living Yours;Keith Jarrett;271;271
Long Ago And Far Away;Jerome Kern / George Gershwin;272;272
Lonnie’s Lament;John Coltrane;273;273
Look To The Sky;Antonio Carlos Jobim;274;274
Looking Back;Richard Niles;275;275
Lucky Southern;Keith Jarrett;276;276
Lullaby Of Birdland;George Shearing;277;277
Lush Life;Billy Strayhorn;278;279
The Magician In You;Keith Jarrett;280;280
Maiden Voyage;Herbie Hancock;281;281
Mallet Man;Gordon Beck;282;283
Man In The Green Shirt;Joe Zawinul;284;285
Mahjong;Wayne Shorter;286;286
May Dance;Dave Holland;287;287
Meditation;Antonio Carlos Jobim;288;288
Memories Of Tomorrow;Keith Jarrett;289;289
Mevlevia;Mick Goodrick;290;291
Michelle;John Lennon / Paul McCartney;292;292
Midnight Mood;Joe Zawinul;293;293
Milano;John Lewis;294;294
Minority;Gigi Gryce;295;295
Misty;Erroll Garner;296;296
Miyako;Wayne Shorter;297;297
Molten Glass;Joe Farrell;298;298
Moment’s Notice;John Coltrane;299;299
Montage;Stu Balcomb;300;300
Mood Indigo;Duke Ellington;301;301
Moon Germs;Joe Farrell;302;302
The More I See You;Warren / Gordon;303;303
Mother Of The Dead Man;Carla Bley;304;304
MR. P.C.;John Coltrane;305;305
Memphis Underground;Herbie Mann;305;305
My Favourite Things;Richard Rodgers;306;306
My Foolish Heart;Washington / Young;307;307
My Funny Valentine;Richard Rodgers / Loretz Hart;308;308
My Little Boeat;Roberto Menescal;309;309
My One And Only Love;Wood / Nellin;310;310
My Romance;Richard Rodgers / Loretz Hart;311;311
Mysterious Traveler;Wayne Shorter;312;313
My Ship;Weill / Gershwin;314;314
Naima;John Coltrane;315;315
Nardis;Miles Davis;316;316
Nefertiti;Miles Davis;317;317
Never Will I Marry;Frank Loesser;318;318
Nica’s Dream;Horace Silver;319;319
Night And Day;Cole Porter;320;320
Night Dreamer;Wayne Shorter;321;321
The Night Has A Thousand Eyes;Weisman / Garrett / Wayne;322;322
Nimbus;Ron McClure;323;323
Nonsequence;Michael Gibbs;324;325
Nostalgia In Times Square;Charles Mingus;326;326
Oleo;Sonny Rollins;327;327
Olhos De Gato;Carla Bley;328;328
Once I Loved;Antonio Carlos Jobim;329;329
One Finger Snap;Herbie Hancock;330;330
One Note Samba;Antonio Carlos Jobim;331;331
Open Your Eyes, You Can Fly;Chick Corea;332;333
Orbits;Wayne Shorter;334;334
Ornithology;Charlie Parker;335;335
Out Of Nowhere;Green / Heyman;336;336
Passion Dance;McCoy Tyner;337;337
Peaches En Regalia;Frank Zappa;338;339
Peace;Horace Silver;340;340
Pearlie’s Swine;Steve Kuhn;341;341
Pee Wee;Tony Williams;342;342
Peggy’s Blue Skylight;Charles Mingus;343;343
Pensativa;Clare Fisher;344;345
Pent-Up House;Jonny Rollins;346;346
Peri’s Scope;Bill Evans;347;347
Pfrancing (No Blues);Miles Davis;348;348
Pinocchio;Wayne Shorter;349;349
Pithycanthropus Erectus;Charles Mingus;350;350
Played Twice;Thelonious Monk;351;351
Portsmouth Figurations;Steve Swallow;352;352
Prelude To A Kiss;Duke Ellington;353;353
Price Of Darkness;Wayne Shorter;354;354
Pussy Cat Dues;Charles Mingus;355;355
Quiet Now;Denny Zeitlin;356;356
The Raven;Keith Jarrett;357;357
The Real Guitarist;Steve Kuhn;358;358
Recordame;Joe Henderson;359;359
Re-Incarnation Of A Lovebird;Charles Mingus;360;361
Red Clay;Freddie Hubbard;362;362
Resolution;Mahavishnu;363;363
'Round Midnight;Thelonious Monk;364;364
Saga Of Harrison Crabfeathers;Steve Kuhn;365;365
Same Shame;Bobby Hutcherson;366;366
Satin Doll;Duke Ellington;367;367
Scotch’n’Soda;Guard;368;368
Scrapple From The Apple;Charlie Parker;369;369
Sea Journey;Chick Corea;370;371
Self Portrait In 3 Colors;Charles Mingus;372;372
Semblence;Keith Jarrett;373;373
Señor Mouse;Chick Corea;374;376
Serenade To A Cuckoo;Roland Kirk;377;377
Seven Come Eleven;Benny Goodman / Charlie Christian;378;378
Seven Steps To Heaven;Miles Davis;379;379
Shades Of Light;Hubert Laius;380;380
The Shadow Of Your Smile;Johnny Mandel;381;381
Sidewinder;Lee Morgan;382;382
Sing Me Softly Of The Blues;Carla Bley;383;383
Skating In Central Park;John Lewis;384;384
Slowly Gone, Bygone;Dave Samuel;385;385
Solar;Miles Davis;386;386
Solitude;Duke Ellington;387;387
Someday My Prince Will Come;Frank Churchill;388;388
Some Other Time;Bernstein / Comden / Green;389;389
Some Skunk Funk;Randy Brecker;390;391
Sometime Ago;Sergio Mihailovich;392;392
Song;Stu Balcomb;393;393
Song For My Father;Horace Silver;394;394
The Song Is You;Kern / Hammerstein;395;395
Son Of Mr. Green Genes;Frank Zappa;396;396
Sophisticated Lady;Duke Ellington;397;397
The Sorcerer;Herbie Hancock;398;398
So What;Miles Davis;399;399
Space Circus;Chick Corea;400;403
Speak No Evil;Wayne Shorter;404;404
Spiral Dance;Keith Jarrett;405;405
Spring Is Here;Richard Rodgers / Loretz Hart;406;406
Star-Crossed Lovers;Duke Ellington;407;407
Stella By Starlight;Victor Young;408;408
Steps;Chick Corea;409;409
Stolen Moments;Oliver Nelson;410;410
Stompin’ At The Savoy;Edgar Sampson;411;411
Straight, No Chaser;Thelonious Monk;412;412
Stuff;Miles Davis;413;413
Sugar;Stanley Turrentine;414;414
Summer Samba;Marcus & Paul Sergio;415;415
Swedish Pastry;Barney Kessel;416;416
Sweet Georgia Bright;Charles Lloyd;417;417
Sweet Henry;Steve Swallow / Jack Gregg;418;418
Sweet Rain;Michael Gibbs;419;419
Take Five;Paul Desmond;420;420
Take The ‘A’ Train;Duke Ellington / Billy Strayhorn;421;421
Tame Thy Pen;Richard Niles;422;422
There Is No Greater Love;Symes / Jones;423;423
Tell Me A Bedtime Story;Herbie Hancock;424;425
There Will Never Bye Another You;Warren / Gordon;426;426
They Can’t Take That Away From Me;George Gershwin;427;427
Think On Me;George Cables;428;428
Three Flowers;McCoy Tyner;429;429
Tones For Joan’s Bones;Chick Corea;430;431
Time Remembered;Bill Evans;432;432
Tough Talk;Jazz Crusaders;433;433
Train Samba;Gary McFarland;434;434
Trance;Steve Kuhn;435;435
Triste;Antonio Carlos Jobim;436;436
Tune-Up;Miles Davis;437;437
Turn Out The Stars;Bill Evans;438;438
Unquity Road;Pat Metheny;439;439
Up Jumped Spring;Freddie Hubbard;440;440
Upper Manhattan Medical Group;Billy Strayhorn;441;441
Vashkar;Carla Bley;442;442
Very Early;Bill Evans;443;443
Virgo;Wayne Shorter;444;444
Wait Till You See Her;Richard Rodgers / Loretz Hart;445;445
Walkin’;Carpenter;446;446
Walter L.;Gary Burton;447;447
Waltz;Pat Metheny;448;448
Waltz For A Lovely Wife;Phil Woods;449;449
Waltz For Debby;Bill Evans;450;450
Waltzin’;Victor Brasil;451;451
Wave;Antonio Carlos Jobim;452;452
We’ll Be Together Again;Fischer / Laine;453;453
Well You Needn’t;Thelonious Monk;454;454
West Coast Blues;Wes Montgomery;455;455
What Am I Here For;Duke Ellington;456;456
What Are You Doing The Rest Of Your Life;Michael Legrande;457;457
What Was;Chick Corea;458;459
What Is This Thing Called Love;Cole Porter;460;460
When I Fall In Love;Heyman / Young;461;461
When Sunny Gets Blue;Fisher / Segal;462;462
Where Are You;Jimmy McHugh;463;463
Wild Flower;Wayne Shorter;464;465
Windows;Chick Corea;466;467
Wings Of Karma;Mahavishnu;468;468
Witch Hunt;Wayne Shorter;469;469
Woody’n You;Dizzy Gillespie;470;470
Yes Or No;Wayne Shorter;471;471
Yesterday;John Lennon / Paul McCartney;472;472
Yesterdays;Jerome Kern;473;473
You Are The Sunshine Of My Life;Stevie Wonder;474;474
You Are Too Beautiful;Richard Rodgers / Loretz Hart;475;475
You Don’t Know What Love Is;Raye / DePaul;476;476
You Took Advantage Of Me;Richard Rodgers / Loretz Hart;477;477
Midwestern Nights Dream;Pat Metheny;481;481
Spain;Chick Corea;482;484
