name;artist;start;end
African Flower;Duke Ellington;10;10
Afro Blue;Mongo Santamaria;11;11
Afternoon in Paris;John Lewis;12;12
Airegin;Sonny Rollins;13;13
Agua De Beber;Antonio Carlos Jobim / Norman Gimbel / Vinicius De Moraes;14;15
Alfie;Burt Bacharach / Hal David;16;16
Alice In Wonderland;Sammy Fain / Bob Hilliard;17;17
All Blues;Miles Davis;18;18
All By Myself;Irving Berlin;19;19
All Of Me;Seymour Simons / Gerald Marks;20;20
All Of You;Cole Porter;21;21
All The Things You Are;Jerome Kern / Oscar Hammerstein II;22;22
Always;Irving Berlin;23;23
Alright, Okay, You Win;Mayme Watts / Sid Wyche;24;25
Ana Maria;Wayne Shorter;26;27
Angel Eyes;Matt Dennis / Earl Brent;28;28
Anthropology;Charlie Parker / Dizzy Gillespie;29;29
Apple Honey;Woody Herman;30;31
April In Paris;Vernon Duke / E. Y. Harburg;32;32
April Joy;Pat Metheny;33;33
Arise, Her Eyes;Steve Swallow;34;35
Armageddon;Wayne Shorter;36;36
Au Privave;Charlie Parker / Dizzy Gillespie;37;37
Autumn In New York;Vernon Duke / E. Y. Harburg;38;38
Autumn Leaves;Joseph Kosma / Johnny Mercer / Jacques Prevert;39;39
Beautiful Love;Victor Young / Wayne King / Egbert Van Alstyne / Haven Gillespie;40;40
Beauty And The Beast;Wayne Shorter;41;41
Bessie's Blues;John Coltrane;42;42
Bewitched;Richard Rodgers / Loretz Hart;43;43
Big Nick;John Coltrane;44;44
Black Coffee;Paul Franck Webster / Sonny Burke;45;45
Black Diamond;Milton Sealey;46;46
Black Narcissus;Joe Henderson;47;47
Black Nile;Wayne Shorter;48;48
Black Orpheus;Luiz Bonfa;49;49
Blue Bossa;Kenny Dorham;50;50
Blue In Green;Miles Davis;51;51
Blue Monk;Theolonious Monk;52;52
The Blue Room;Richard Ridgers / Lorenz Hart;53;53
Blue Train;John Coltrane;54;54
Blues For Alice;Charlie Parker;55;55
Bluesette;Jean Thielemans / Norman Gimbel;56;56
Body And Soul;John Green / Edward Heyman / Robert Sour / Frank Eyton;57;57
Boplicity;Miles Davis / Gil Evans;58;58
Bright Size Life;Pat Metheny;59;59
Broad Way Blues;Ornette Coleman;60;60
Broadway;Bill Byrd / Teddy McRae / Henri Woode;61;61
But Beautiful;Jimmy Van Heusen / Johnny Burke;62;62
Butterfly;Herbie Hancock / Bennei Maupin;63;63
Byrd Like;Freddie Hubbard;64;64
C'est Si Bon;Henri Betti / Jerry Seelen / Andre Hornez;65;65
Call Me;Tony Hatch;66;66
Call Me Irresponsible;James Van Heusen / Sammy Cahn;67;67
Can't Help Lovin' Dat Man;Jerome Kern / Oscar Hammerstein II;68;68
Central Park West;John Coltrane;69;69
Captain Marvel;Chick Corea;70;71
Ceora;Lee Morgan;72;72
Chelsea Bells;Steve Swallow;73;73
Chega De Saudade;Antonio Carlos Jobim / Vinicius De Moraes;74;75
Chelsea Bridge;Billy Strayhorn;76;76
Cherokee;Ray Noble;77;77
Cherry Pink And Apple Blossom White;Louigui / Jacque Larue / Mac David;78;78
A Child Is Born;Thad Jones;79;79
Chippie;Ornette Coleman;80;80
Chitlins Con Carne;Kenny Burrell;81;81
Come Sunday;Duke Ellington;82;82
Como En Vietnam;Steve Swallow;83;83
Con Alma;Dizzy Gillespie;84;85
Conception;George Shearing;86;86
Confirmation;Charlie Parker;87;87
Contemplation;McCoy Cyner;88;88
Coral;Keith Jarrett;89;89
Cotton Tail;Duke Ellington;90;90
Could It Be You;Cole Porter;91;91
Countdown;John Coltrane;92;92
Crescent;John Coltrane;93;93
Crystal Silence;Chick Corea;94;94
D Natural Blues;John L. Montgomery;95;95
Daahoud;Clifford Brown;96;97
Dancing On The Ceiling;Richard Rodgers / Lorenz Hart;98;98
Darn That Dream;Jimmy Van Heusen / Eddie De Lange;99;99
Day Waves;Chick Corea / Neville Porter;100;100
Days And Nights Weiting;Keith Jarrett;101;101
Dear Old Stockholm;Varmeland;102;102
Dearly Beloved;Jerome Kern / Johnny Mercer;103;103
Dedicated To You;Sammy Cahn / Saul Chaplin / Hyzaret;104;104
Detour Ahead;Herb Ellis / John Frigo / Lou Carter;105;105
Deluge;Wayne Shorter;106;107
Desafinado;Antonio Carlos Jobim / Newton Mendonca;108;109
Desert Air;Chick Corea;110;111
Dexterity;Charlie Parker;112;112
Dizzy Atmosphere;Dizzy Gillespie;113;113
Django;John Lewis;114;115
Doin' The Pig;Steve Swallow;116;117
Dolores;Wayne Shorter;118;118
Dolphin Dance;Herbie Hancock;119;119
Domino Biscuit;Steve Swallow;120;120
Don't Blame Me;Jimmy McHugh / Dorothy Fields;121;121
Don't Get Around Much Anymore;Duke Ellington / Bob Russel;122;122
Donna Lee;Charlie Parker;123;123
Dream A Little Dream Of Me;Wilbur Schwandt / Fabian Andree / Gus Kahn;124;124
Dreamsville;Henry Mankin / Jay Livingston / Ray Evans;125;125
Easter Parade;Irving Berlin;126;126
Easy Living;Leo Robin / Ralph Rainger;127;127
Easy To Love;Cole Porter;128;128
Ecclusiastics;Charles Mingus;129;129
Eighty One;Miles Davis / Ronals Carter;130;130
El Gaucho;Wayne Shorter;131;131
Epistrophy;Thelonious Monk / Kenny Clarke;132;132
Equinox;John Coltrane;133;133
Equipoise;Stanley Cowell;134;134
E.S.P.;Wayne Shorter;135;135
Fall;Wayne Shorter;136;136
Falling Grace;Steve Swallow;137;137
Falling In Love With Love;Richard Rodgers / Lorenz Hart;138;138
Fee-Fi-Fo-Fum;Wayne Shorter;139;139
A Fine Romance;Jerome Kern / Dorothy Fields;140;140
500 Miles High;Chick Corea / Neville Potter;141;141
502 Blues;James Rowles;142;142
Follow Your Heart;John McLaughlin;143;143
Footprints;Wayne Shorter;144;144
For All We Know;J. Fred Coots / Sam M. Lewis;145;145
For Heaven's Sake;Don Meyer / Euse Bretton / Sherman Edwards;146;146
For Sentimental Reasons;William Best / Deek Watson;147;147
Forest Flower;Charles Lloyd;148;148
Four;Miles Davis;149;149
Four On Six;John L. Montgomery;150;150
Freddie Freeloader;Miles DAvis;151;151
Freedom Jazz Dance;Eddie Harris;152;152
Gee Baby, Ain't I Good To You;Don Redman / Andy Razaf;153;153
Full House;John L. Montgomery;154;155
Gemini;Jimmy Heath;156;156
Giant Steps;John Coltrane;157;157
The Girl From Ipanema;Antonio Carlos Jobim / Norman Gimble / Vinicius De Moraes;158;158
Gloria's Step;Scott LeFard;159;159
God Bless' The Child;Arthur Herzog Jr. / Billie Holiday;160;160
Golden Lady;Stevie Wonder;161;161
Good Evening Mr. And Mrs. America;John Guerin;162;163
Grand Central;John Coltrane;164;164
The Green Mountains;Steve Swallow;165;165
Groovin' High;Dizzy Gillespie;166;166
Grow Your Own;Keith Jarrett;167;167
Guilty;Gus Kahn / Richart Whiting / Harry Akst;168;168
Gypsy In My Soul;Clay Boland / Moe Jaffe / Clay Boland;169;169
Half Nelson;Miles Davis;170;171
Have You Met Miss Jones;Richard Rodgers / Lorenz Hart;172;172;
Heaven;Duke Ellington;173;173
Herbie Jeebies;Boyd Atkins;174;174
Here's That Rainy Day;Jimmy Van Heusen / Johnny Burke;175;175
Hello, Young Lovers;Richard Rodgers / Oscar Hammerstein II;176;177
Hot Toddy;Herb Hendler / Ralph Flanagan;178;178
House Of Jade;Wayne Shorter;179;179
How High The Moon;Morgan Lewis / Nancy Hamiltion;180;180
How Insensitive;Antonio Carlos Jobim / Vinicius De Moraes / Norman Gimbel;181;181
How My Heart Sings;Earl Zindars / Anne Zindars;182;182
Hullo Bolinas;Steve Swallow;183;183
I Can't Get Started With You;Vernon Duke / Ira Gershwin;184;184
I Can't Give You Anything But Love;Jimmy McHugh / Dorothy Fields;185;185
I Could Write A Book;Richard Rodgers / Lorenz Hart;186;186
I Got It Bad And That Ain't Good;Duke Ellington / Paul Francis Webster;187;187
I Let A Song Go OUt Of My Heart;Duke Ellington / Henry Nemo / John Redmond / Irving Mills;188;188
I Love Paris;Cole Porter;189;189
I Love You;Cole Porter;190;190
I Mean You;Thelonious Monk / Coleman Hawkins;191;191
I Remember Clifford;Benny Golson;192;193
I Should Care;Sammy Cahn / Axel Stordahl / Paul Weson;194;194
I Wish I Knew How It Would Feel To Be Free;Billy Taylor;195;195
I'll Never Smile Again;Ruth Lowe;196;196
I'll Remember April;Pat Johnson / Don Raye / Gene De Paul;197;197
I'm All Smiles;Michael Leonard / Herbert Martin;198;199
I'm Beginning To See The Light;Don George / Johnny Hodges / Duke Ellington / Harry James;200;200
I'm Your Pal;Steve Swallow;201;201
Icarus;Ralph N. Towner;202;203
If You Never Come To Me;Antonio Carlos Jobim / Aloysid De Olivera / Ray Gilbert;204;204
Impressions;John Coltrane;205;205
In A Mellow Tone;Duke Ellington;206;206
In A Sentimental Mood;Duke Ellington;207;207
In The Mood;Joe Garland;208;209
In The Wee Small Hours Of The Morning;David Mann / Bob Hilliard;210;210
In Your Quiet Place;Keith Jarrett;211;211
The Inch Worm;Frank Loesser;212;212
Indian Lady;Don Ellis;213;213
Inner Urge;Joe Henderson;214;214
Interplay;Bill Evans;215;215
The Intrepid Fox;Freddie Hubbard;216;216
Invitation;Bronislam Kaper / Paul Francis Webster;217;217
Iris;Wayne Shorter;218;218
Isn't It Romantic?;Richard Rodsers / Lorenz Hart;219;219
Is You Is, Or Is You Ain't;Billy Austin / Louis Jordan;220;221
Isotope;Joe Henderson;222;222
Israel;John Carisi;223;223
It Don't Mean A Thing;Duke Ellington / Irving Mills;224;224
It's Easy To Remember;Richard Rodgers / Lorenz Hart;225;225
Jelly Roll;Charles Mingus;226;226
Jordu;Duke Jordan;227;227
Journey To Recife;Richard Evans / Norman Gimbel;228;228
Joy Spring;Clifford Brown;229;229
Juju;Wayne Shorter;230;230
June In January;Leo Robin / Ralph Rainger;231;231
Jump Monk;Charles Mingus;232;233
Just One More Change;Arthur Johnston / Sam Coslon;234;234
Lady Bird;Tadd Dameron;235;235
Kelo;J.J. Johnson;236;237
Lady Sings The Blues;Herbert Nichols / Billie Holiday;238;238
Lament;J.J. Johnson;239;239
Las Vegas Tango;Gil Evans;240;240
Lazy Bird;John Coltrane;241;241
Lazy River;Hoagy Carmichael / Sidney Arodin;242;242
Like Someone In Love;Jimmy Van Heusen / Johnny Burke;243;243
Limehouse Blues;Philip Braham / Douglas Furber;244;244
Little Boat;Roberto Menescal / Ronaldo Boscoli / Buddy Kaye;245;245
Lines And Spaces;Joe Lovano;246;247
Litha;Chick Corea;248;249
Little Waltz;Ron Carter;250;250
Long Ago;Jerome Kern / Ira Gershwin;251;251
Lonnie's Lament;John Coltrane;252;252
Look To The Sky;Antonio Carlos Jobim;253;253
Love Is The Sweetest Thing;Ray Noble;254;254
Lucky Southern;Keith Jarrett;255;255
Lullaby Of Birdland;George Shearing / George Davis Wweiss;256;256
The Magician In You;Keith Jarrett;257;257
Lush Life;Billy Strayhorn;258;259
Mahjong;Wayne Shorter;260;260
Maiden Voyage;Herbie Hancock;261;261
A Man And A Woman;Francis Lai / Pierre Barouh / Jerry Keller;262;263
Man In The Green Shirt;Joe Zawinul;264;265
Meditation;Antonio Carlos Jobim / Newton Mendonca / Norman Gimbel;266;266
Memories Of Tomorrow;Keith Jarrett;267;267
Michelle;John Lennon / Paul McCartney;268;268
Midnight Mood;Josef Zawinul;269;269
Midwestern Nights Dream;Pat Metheny;270;271
Milano;John Lewis;272;272
Minority;Gigi Gryce;273;273
Miss Ann;Eric Dolphy;274;274
Missouri Uncompromised;Pat Metheny;275;275
Mr. P.C.;John Coltrane;276;276
Misty;Erroll Garner;277;277
Miyako;Wayne Shorter;278;278
Mood Indigo;Duke Ellington / Irving Mills / Albany Bigard;279;279
Moment's Notice;John Coltrane;280;281
Moonchild;Keith Jarrett;282;282
The Most Beatiful Girl In The World;Richard Rodgers / Lorenz Hart;283;283
My Buddy;Walter Donaldson / Gus Kahn;284;284
My Favourite Things;Richard Rodgers / Oscar Hammerstein II;285;285
My Foolish Heart;Victor Young / Ned Washington;286;286
My Funny Valentine;Richard Rodgers / Lorenz Hart;287;287
My One And Only Love;Guy Wood / Robert Mellin;288;288
My Romance;Richard Rodgers / Lorenz Hart;289;289
My Shining Hour;Harold Arlen / Johnny Mercer;290;290
My Ship;Kurt Weill / Ira Gershwin;291;291
My Way;Jacques Revaux / Claude Francois / Paul Anka / Gilles Thibaud;292;292
Naima;John Coltrane;293;293
Mysterious Traveller;Wayne Shorter;294;295
Nardis;Miles Davis;296;296
Nefertiti;Wayne Shorter;297;297
Never Will I Marry;Frank Loesser;298;298
Nica's Dream;Horace Silver;299;299
Night Dreamer;Wayne Shorter;300;300
The Night Has A Thousand Eyes;Jerry Brainin / Buddy Bernier;301;301
A Night In Tunisia;Dizzy Gillespie / Frank Paparelli;302;302
Nobody Knows You When You're Down And Out;Jimmie Cox;303;303
Night Train;Jimmy Forrest / Oscar Washington / Lewis C. Simpkins;304;305
Nostalgia In Times Square;Charles Mingus;306;306
Nuages;Django Reinhardt / Jaques Larue;307;307
The Old Country;Nat Adderly / Curtis R. Lewis;308;308
Oleo;Sonny Rollins;309;309
Oliloqui Valley;Herbie Hancock;310;310
Once I Loved;Antonio Carlos Jobim / Vinicius De Moraes / Ray Gilbert;311;311
Once In Love With Amy;Frank Loesser;312;312
One Finger Snap;Herbie Hancock;313;313
One Note Samba;Antonio Carlos Jobim / Newton Mendonca;314;314
Only Trust Your Heart;Benny Carter / Sammy Cahn;315;315
Orbits;Wayne Shorter;316;316
Ornithology;Charlie Parker / Bennie Harris;317;317
Out Of Nowhere;Johnny Green / Edward Heyman;318;318
Paper Doll;Johnny S. Black;319;319
Passion Dance;McCoy Tyner;320;320
Passion Flower;Billy Strayhorn / Milton Raskin;321;321
Peace;Horace Silver;322;322
Peggy's Blue Skylight;Charles Mingus;323;323
Pent Up House;Sonny Rollins;324;324
Penthouse Serenade;Will Jason / Val Burton;325;325
Peri's Scope;Bill Evans;326;326
Pfrancing;Miles Davis;327;327
Pinocchio;Wayne Shorter;328;328
Pithecanthropus Erectus;Charles Mingus;329;329
Portsmouth Figurations;Steve Swallow;330;330
Prelude To A Kiss;Duke Ellington / Irving Gordon / Irving Mills;331;331
Prince Of Darkness;Wayne Shorter;332;332
P.S. I Love You;Gordon Jenkins / Johnny Mercer;333;333
Pussy Cat Dues; Charles Mingus;334;334
Quiet Nights Of Quiet Stars (Corcovado);Antonio Carlos Jobim / Gene Lees;335;335
Quiet Now;Danny Zeitlin;336;336
Recorda-Me;Joe Henderson;337;337
Red Clay;Freddie Hubbard;338;339
Reflections;Thelonious Monk;340;340
Ring Dem Bells;Duke Ellington / Irving Mills;341;341
Reincarnation Of A Lovebird;Charles Mingus;342;343
Road Song;John L. Montgomery;344;344
'Round Midnight;Thelonious Monk / Cootie Williams / Bernie Hanighen;345;345
Ruby, My Dear;Thelonious Monik;346;347
The Sage Of Harrison Crabfeathers;Steve Kuhn;348;348
Satin Doll;Duke Ellington;349;349
Scotch And Soda;Dave Guard;350;350
Scrapple From The Apple;Charlie Parker;351;351
Sea Journey;Chick Corea / Neville Potter;352;353
Seven Come Eleven;Benny Goodman / Charlie Christian;354;354
Sidewinder;Lee Morgan;355;355
Seven Steps To Heaven;Miles Davis / Victor Fieldman;356;357
Silver Hollow;Jack DeJohnette;358;358
Sirabhorn;Pat Metheny;359;359
Skating In Central Park;John Lewis;360;361
So Nice;Marcos Valle / Paulo Sergio Valle / Norman Gimbel;362;362
Solar;Miles Davis;363;363
So What;Miles Davis;364;365
Solitude;Duke Ellington / Eddie De Lange / Irving Mills;366;366
Some Day My Prince Will Come;Frank Churchill / Larry Morey;367;367
Some Other Spring;Arthur Herzog Jr / Irene Kitchings;368;368
Somebody Loves Me;George Gershwin / G.B. Desylva / Ballard MacDonald / Emelia Renaud;369;369
Some Skunk Funk;Randy Brecker;370;371
Sometime Ago;Sergio Mihanovich;372;372
Song For My Father;Horace Silver;373;373
The Song Is You;Jerome Kern / Oscar Hammerstein II;374;375
Sophisticated Lady;Duke Ellington / Irving Mills / Michtell Parish;376;376
The Sorcerer;Herbie Hancock;377;377
Speak No Evil;Wayne Shorter;378;378
The Sphinx;Ornette Coleman;379;379
Standing On the Corner;Frank Loesser;380;380
The Star-Crossed Lovers;Duke Ellington / Billy Strayhorn;381;381
Stella By Starlight;Victor Young / Ned Washington;382;382
Steps;Chick Corea;383;383
Stolen Moments;Oliver Nelson;384;384
Stompin' At The Savoy;Benny Goodman / Edgar Sampson / Chick Webb;385;385
Straight No Chaser;Thelonious Monk;386;386
Sugar;Stanley Turrentine;387;387
A String Of Pearls;Jerry Gray;388;389
Stuff;Miles Davis;390;391
A Sunday Kind Of Love;Barbara Belle / Louis Prima / Anita Leonard / Stan Rhodes;392;392
The Surrey With The Fringe On Top;Richard Rodgers / Oscar Hammerstein II;393;393
Swedish Pastry;Barney Kessel;394;394
Sweet Georgia Bright;Charles Lloyd;395;395
Sweet Henry;Steve Swallow / Jack Gregg;396;396
Take Five;Paul Desmond;397;397
Take The 'A' Train;Billy Strayhorn;398;398
Thanks For The Memory;Leo Robin / Ralph Rainger;399;399
Tame Thy Pen;Richard Niles;400;401
Tell Me A Bedtime Story;Herbie Hancock;402;403
That's Amore;Harry Warren / Jack Brooks;404;405
There Is No Greater Love;Isham Jones / Marty Symes;406;406
There Will Never Be Another You;Harry Warren / Mach Gordon;407;407
There'll Be Some Changes Made;Benton Overstreet / Billy Higgins;408;408
They Didn't Believe Me;Jerome Kern / Herbert Reynolds;409;409
Think On Me;George Cables;410;410
Thou Swell;Richard Rodgers / Lorenz Hart;411;411
Three Flowers;McCoy Tyner;412;412
Time Remembered;Bill Evans;413;413
Tones For Joan's Bones;Chick Corea;414;414
Topsy;Edgar Battle / Eddie Durham;415;415
Tour The Force;Dizzy Gillespie;416;416
Triste;Antonio Carlos Jobim;417;417
Tune Up;Miles Davis;418;418
Turn Out The Stars;Bill Evans / Gene Lees;419;419
Twisted Blues;John L. Montgomery;420;420
Uniquity Road;Pat Metheny;421;421
Unchain My Heart;Bobby Sharp / Teddy Powell;422;423
Unity Village;Pat Metheny;424;424
Up Jumped Spring;Freddie Hubbard;425;425
Upper Manhattan Medical Group;Billy Strayhorn;426;426
Valse Hot;Sonny Rollins;427;427
Very Early;Bill Evans;428;428
Virgo;Wayne Shorter;429;429
Wait Till You See Her;Richard Rodgers / Lorenz Hart;430;430
Wave;Antonio Carlos Jobim;431;431
Waltz For Debby;Bill Evans / Gene Lees;432;433
We'll Be Together Again;Carl Fisher / Frankie Lane;434;434
Well You Needn't;Thelonious Monk / Mike Perro;435;435
West Coast Blues;John L. Montgomery;436;436
What Am I Here For?;Duke Ellington;437;437
What Was;Chick Corea;438;438
When I Fall In Love;Victor Young / Edward Heyman;439;439
When Sunny Gets Blue;Marvin Fischer / Jack Segal;440;440
When You Wish Upon A Star;Leigh Harline / Ned Washington;441;441
Whispering;Richard Coburn / John Schonberger / Vincent Rose;442;442
Windows;Chick Corea;443;443
Wild Flower;Wayne Shorter;444;445
Witch Hunt;Wayne Shorter;446;446
Woodchopper's Ball;Joe Bishop / Woody Herman;447;447
Wives And Lovers;Burt Bacharch / Hal David;448;449
Woodyn' You;Dizzy Gillespie;450;450
The World Is Waiting For The Sunrise;Ernest Seitz / Eugene Lockhart;451;451
Yes And No;Wayne Shorter;452;452
Yesterday;John Lennon / Paul McCartney;453;453
Yesterdays;Jerome Kern / Otto Harbach;454;454
You Are Too Beautiful;Richard Rodgers / Lorenz Hart;455;455
You Are The Sunshine Of My Life;Stevie Wonder;456;457
You Brought A New Kind Of Love To Me;Sammy Fain / Irving Kahal / Pierre Norman;458;458
You Don't Know What Love Is;Don Raye / Gene DePaul;459;459
You Took Advantage Of Me;Richard Rodgers / Lorentz Hart;460;460
Young At Heart;Johnny Richards / Carolyn Leigh;461;461
You're Nobody 'Til Somebody Loves You;Russ Morgan / Larry Stock / James Cavanaugh;462;462
