{
  "name": "Real Book - Volume 1",
  "slug": "RB1",
  "data": "RB_1.csv",
  "keys": [
    {
      "key": "C",
      "pdf": "RB_1_6_C.pdf",
      "offset": -1
    },
    {
      "key": "Eb",
      "pdf": "RB_1_6_Eb.pdf",
      "offset": -1
    },
    {
      "key": "Bb",
      "pdf": "RB_1_6_Bb.pdf",
      "offset": -1
    },
    {
      "key": "Bass",
      "pdf": "RB_1_6_Bass.pdf",
      "offset": -1
    }
  ]
}
