{
  "name": "Real Book - Volume 3",
  "slug": "RB3",
  "data": "RB_3.csv",
  "keys": [
    {
      "key": "C",
      "pdf": "RB_3_1_C.pdf",
      "offset": 5
    },
    {
      "key": "Bb",
      "pdf": "RB_3_1_Bb.pdf",
      "offset": 8
    }
  ]
}
