[
  {
    "name": "RealBook (6th Edition)",
    "slug": "RB1",
    "keys": [
      {
        "key": "C",
        "file": "/pdf/_FULL_RB/RB_1_6_C.pdf"
      },
      {
        "key": "Bb",
        "file": "/pdf/_FULL_RB/RB_1_6_Bb.pdf"
      },
      {
        "key": "Eb",
        "file": "/pdf/_FULL_RB/RB_1_6_Eb.pdf"
      },
      {
        "key": "Bass",
        "file": "/pdf/_FULL_RB/RB_1_6_Bass.pdf"
      }
    ]
  },
  {
    "name": "RealBook (5th Edition)",
    "slug": "R15",
    "keys": [
      {
        "key": "C",
        "file": "/pdf/_FULL_RB/RB_1_5_C.pdf"
      },
      {
        "key": "Bb",
        "file": "/pdf/_FULL_RB/RB_1_5_Bb.pdf"
      },
      {
        "key": "Eb",
        "file": "/pdf/_FULL_RB/RB_1_5_Eb.pdf"
      },
      {
        "key": "Bass",
        "file": "/pdf/_FULL_RB/RB_1_5_Bass.pdf"
      }
    ]
  },
  {
    "name": "RealBook Volume 2",
    "slug": "RB2",
    "keys": [
      {
        "key": "C",
        "file": "/pdf/_FULL_RB/RB_2_1_C.pdf"
      },
      {
        "key": "Bb",
        "file": "/pdf/_FULL_RB/RB_2_1_Bb.pdf"
      },
      {
        "key": "Eb",
        "file": "/pdf/_FULL_RB/RB_2_1_Eb.pdf"
      },
      {
        "key": "Bass",
        "file": "/pdf/_FULL_RB/RB_2_1_Bass.pdf"
      }
    ]
  },
  {
    "name": "RealBook Volume 3",
    "slug": "RB3",
    "keys": [
      {
        "key": "C",
        "file": "/pdf/_FULL_RB/RB_3_1_C.pdf"
      },
      {
        "key": "Bb",
        "file": "/pdf/_FULL_RB/RB_3_1_Bb.pdf"
      }
    ]
  }
]
